lab5_bf
…
Using count() from dplyr. Groups for you then ungroups when youre done. Amazing

Lets count the number of lobsters by year and month

lobster_ym <- lobster_parse_date %>% 
  count(obs_year, obs_month)

#now lets count by lobster year and then site

lobster_ysite <- lobster_parse_date %>% 
  count(obs_year, site)

lobster_ysite

## # A tibble: 35 x 3
##    obs_year site      n
##       <dbl> <chr> <int>
##  1     2012 AQUE     38
##  2     2012 CARP     78
##  3     2012 IVEE     26
##  4     2012 MOHK     83
##  5     2012 NAPL      6
##  6     2013 AQUE     32
##  7     2013 CARP     93
##  8     2013 IVEE     40
##  9     2013 MOHK     15
## 10     2013 NAPL     63
## #  with 25 more rows
…
## # A tibble: 5 x 2
##   site      n
##   <chr> <int>
## 1 AQUE    422
## 2 CARP   1619
## 3 IVEE   2304
## 4 MOHK    982
## 5 NAPL   1039

lobster_length <- lobster_parse_date %>% 
  count(size_mm)

lobster_length

## # A tibble: 95 x 2
##    size_mm     n
##      <dbl> <int>
##  1      18     1
##  2      25     4
##  3      28     1
##  4      30     4
##  5      32     2
##  6      35    17
##  7      37     2
##  8      38     4
##  9      40    68
## 10      41     1
## #  with 85 more rows
…
